{
    "@id" : "dtmi:com:contoso:ambulance_copy;1",
    "@type" : "Interface",
    "@context" : "dtmi:dtdl:context;2",
    "displayName" : "Ambulance",
    "contents" : [
        {
            "@type" : "Property",
            "name" : "fuelPercentage",
            "schema" : "integer"
        },
        {
            "@type" : "Property",
            "name" : "busy",
            "schema" : "boolean"
        },
        {
            "@type" : "Property",
            "name" : "totalPatient",
            "schema" : "integer"
        },
        {
            "@type" : "Property",
            "name" : "lastLocation",
            "schema" : {
                "@type" : "Object",
                "fields" : [
                    {
                        "name": "latitude",
                        "schema" : "double"
                    },
                    {
                        "name" : "longitude",
                        "schema" : "double"
                    }
                ]
            }
        },
        {
            "@type" : "Telemetry",
            "name" : "location",
            "schema" : "point"
        },
        {
            "@type" : "Relationship",
            "name" : "hasPatient",
            "target" : "dtmi:com:contoso:patient;1",
            "minMultiplicity": 0,
            "maxMultiplicity" : 1,
            "properties" : [
                {
                    "@type" : "Property",
                    "name" : "arrivalDateTime",
                    "schema" : "dateTime"
                }
            ]
        }
    ]
}