{
    "@id" : "dtmi:com:contoso:patient;1",
    "@type" : "Interface",
    "@context" : "dtmi:dtdl:context;2",
    "displayName" : "Patient",
    "contents" : [
        {
            "@type" : "Property",
            "name" : "heartRate",
            "schema" : "integer"
        },
        {
            "@type" : ["Property", "Pressure"],
            "name" : "bloodPressure",
            "unit" : "millimetresOfMercury",
            "schema" : "double"
        },
        {
            "@type" : ["Property", "Temperature"],
            "name" : "bodyTemperature",
            "unit" : "degreeCelsius",
            "schema" : "double"
        },
        {
            "@type" : "Property",
            "name" : "patientCode",
            "schema" : {
                "@type" : "Enum",
                "valueSchema" : "integer",
                "enumValues" : [
                    {
                        "name" : "red",
                        "displayName" : "Red",
                        "enumValue" : 0
                    },
                    {
                        "name" : "yellow",
                        "displayName" : "Yellow",
                        "enumValue" : 1
                    },
                    {
                        "name" : "green",
                        "displayName" : "Green",
                        "enumValue" : 2
                    },
                    {
                        "name" : "white",
                        "displayName" : "White",
                        "enumValue" : 3
                    }
                ]
            }
        }
    ]
}